First Pass Interceptions - A Hugo website
…
percentage_int_plays <- intyear%>%
  left_join(passingyear, by = "year") %>%
  rename(int = count.x, pass_plays = count.y) %>%
  mutate(percentage = int/pass_plays*100)

int_play %>%
  group_by(pos_team) %>%
  summarise(count = n()) %>%
  arrange(desc(count))

## # A tibble: 45 × 2
##    pos_team        count
##    <chr>           <int>
##  1 Purdue              3
##  2 Ball State          2
##  3 BYU                 2
##  4 Indiana             2
##  5 Tulsa               2
##  6 UAB                 2
##  7 Alabama             1
##  8 Bethune-Cookman     1
##  9 Boston College      1
## 10 Bowling Green       1
## # … with 35 more rows
…
